store,websites,attribute_set,type,sku,name,price,description,short_description,qty
english,base,Retail,configurable,VD-1,Apple Jaxx,18.99,&nbsp;,&nbsp;,1
english,base,Retail,configurable,VD-2,Banana Cream Pie,18.99,&nbsp;,&nbsp;,1
english,base,Retail,configurable,VD-3,Black Honey,18.99,&nbsp;,&nbsp;,1
english,base,Retail,configurable,VD-4,Blawesome,18.99,&nbsp;,&nbsp;,1
english,base,Retail,configurable,VD-5,Blue Honey,18.99,&nbsp;,&nbsp;,1
english,base,Retail,configurable,VD-6,Buttery Nipple,18.99,&nbsp;,&nbsp;,1
english,base,Retail,configurable,VD-7,Apple Pie,18.99,&nbsp;,&nbsp;,1
english,base,Retail,configurable,VD-8,Appletini,18.99,&nbsp;,&nbsp;,1
english,base,Retail,configurable,VD-9,Banana Mama,18.99,&nbsp;,&nbsp;,1
english,base,Retail,configurable,VD-10,Bavarian Cream,18.99,&nbsp;,&nbsp;,1
english,base,Retail,configurable,VD-11,Blue Jitsu,18.99,&nbsp;,&nbsp;,1
english,base,Retail,configurable,VD-12,Blueberry Pie,18.99,&nbsp;,&nbsp;,1
english,base,Retail,configurable,VD-13,Butterscotch Pudding,18.99,&nbsp;,&nbsp;,1
english,base,Retail,configurable,VD-14,Bwaffle,18.99,&nbsp;,&nbsp;,1
english,base,Retail,configurable,VD-15,Candy Cane,18.99,&nbsp;,&nbsp;,1
english,base,Retail,configurable,VD-16,Caramel Apple,18.99,&nbsp;,&nbsp;,1
english,base,Retail,configurable,VD-17,Chewy Bear,18.99,&nbsp;,&nbsp;,1
english,base,Retail,configurable,VD-18,Chocolate Strawberry,18.99,&nbsp;,&nbsp;,1
english,base,Retail,configurable,VD-19,Cinnamon Roll,18.99,&nbsp;,&nbsp;,1
english,base,Retail,configurable,VD-20,Coconut Cream,18.99,&nbsp;,&nbsp;,1
english,base,Retail,configurable,VD-21,Cotton Candy,18.99,&nbsp;,&nbsp;,1
english,base,Retail,configurable,VD-22,Dr. Venkman,18.99,&nbsp;,&nbsp;,1
english,base,Retail,configurable,VD-23,Flavorless,18.99,&nbsp;,&nbsp;,1
english,base,Retail,configurable,VD-24,Fruit Tsunami,18.99,&nbsp;,&nbsp;,1
english,base,Retail,configurable,VD-25,Fuzzy Navel,18.99,&nbsp;,&nbsp;,1
english,base,Retail,configurable,VD-26,Grape Vape,18.99,&nbsp;,&nbsp;,1
english,base,Retail,configurable,VD-27,Hazelnut Coffee,18.99,&nbsp;,&nbsp;,1
english,base,Retail,configurable,VD-28,Key Lime Pie,18.99,&nbsp;,&nbsp;,1
english,base,Retail,configurable,VD-29,Mocha Java Drizzle,18.99,&nbsp;,&nbsp;,1
english,base,Retail,configurable,VD-30,Mtn. Dude,18.99,&nbsp;,&nbsp;,1
english,base,Retail,configurable,VD-31,NRG Drink,18.99,&nbsp;,&nbsp;,1
english,base,Retail,configurable,VD-32,Orange Cream,18.99,&nbsp;,&nbsp;,1
english,base,Retail,configurable,VD-33,Original Cheesecake,18.99,&nbsp;,&nbsp;,1
english,base,Retail,configurable,VD-34,Peach Cobbler,18.99,&nbsp;,&nbsp;,1
english,base,Retail,configurable,VD-35,Peaches 'n Cream,18.99,&nbsp;,&nbsp;,1
english,base,Retail,configurable,VD-36,Pina Colada,18.99,&nbsp;,&nbsp;,1
english,base,Retail,configurable,VD-37,Pineapple Upside-Down Vape,18.99,&nbsp;,&nbsp;,1
english,base,Retail,configurable,VD-38,Pumpkin Cheesecake,18.99,&nbsp;,&nbsp;,1
english,base,Retail,configurable,VD-39,Pure Menthol,18.99,&nbsp;,&nbsp;,1
english,base,Retail,configurable,VD-40,Red Hot,18.99,&nbsp;,&nbsp;,1
english,base,Retail,configurable,VD-41,Rum & Cola,18.99,&nbsp;,&nbsp;,1
english,base,Retail,configurable,VD-42,Skinny Mint,18.99,&nbsp;,&nbsp;,1
english,base,Retail,configurable,VD-43,Snicker Dude'l,18.99,&nbsp;,&nbsp;,1
english,base,Retail,configurable,VD-44,Strawberry Banana,18.99,&nbsp;,&nbsp;,1
english,base,Retail,configurable,VD-45,Strawberry Cream,18.99,&nbsp;,&nbsp;,1
english,base,Retail,configurable,VD-46,Strawberry Fields,18.99,&nbsp;,&nbsp;,1
english,base,Retail,configurable,VD-47,Strawberry Lemonade,18.99,&nbsp;,&nbsp;,1
english,base,Retail,configurable,VD-48,Turtle Cheesecake,18.99,&nbsp;,&nbsp;,1
english,base,Retail,configurable,VD-49,Vanilla Coffee,18.99,&nbsp;,&nbsp;,1
english,base,Retail,configurable,VD-50,Vanilla Cupcake,18.99,&nbsp;,&nbsp;,1
english,base,Retail,configurable,VD-51,Vanilla Tobacco,18.99,&nbsp;,&nbsp;,1
english,base,Retail,configurable,VD-52,Ice Ice,18.99,&nbsp;,&nbsp;,1
english,base,Retail,configurable,VD-53,Apple Ice,18.99,&nbsp;,&nbsp;,1
english,base,Retail,configurable,VD-54,Black Ice,18.99,&nbsp;,&nbsp;,1
english,base,Retail,configurable,VD-55,Blueberry Ice,18.99,&nbsp;,&nbsp;,1
english,base,Retail,configurable,VD-56,Fire & Ice,18.99,&nbsp;,&nbsp;,1
english,base,Retail,configurable,VD-57,Pineapple Ice,18.99,&nbsp;,&nbsp;,1
english,base,Retail,configurable,VD-58,Strawberry Ice,18.99,&nbsp;,&nbsp;,1
english,base,Retail,configurable,VD-59,Vanilla Ice,18.99,&nbsp;,&nbsp;,1
english,base,Retail,configurable,VD-60,Naturals Bananas Foster,18.99,&nbsp;,&nbsp;,1
english,base,Retail,configurable,VD-61,Naturals Belgian Blue,18.99,&nbsp;,&nbsp;,1
english,base,Retail,configurable,VD-62,Naturals 'Nilla No-Bake,18.99,&nbsp;,&nbsp;,1
english,base,Retail,configurable,VD-63,Naturals Amaretto haze,18.99,&nbsp;,&nbsp;,1
english,base,Retail,configurable,VD-64,Naturals Apricot Splash,18.99,&nbsp;,&nbsp;,1
english,base,Retail,configurable,VD-65,Naturals Baffleberry,18.99,&nbsp;,&nbsp;,1
english,base,Retail,configurable,VD-66,Naturals The Brunette,18.99,&nbsp;,&nbsp;,1
english,base,Retail,configurable,VD-67,Naturals Chai Latte,18.99,&nbsp;,&nbsp;,1
english,base,Retail,configurable,VD-68,Naturals Citrus Burst,18.99,&nbsp;,&nbsp;,1
english,base,Retail,configurable,VD-69,Naturals Cool Melon,18.99,&nbsp;,&nbsp;,1
english,base,Retail,configurable,VD-70,Naturals Dudeaccino,18.99,&nbsp;,&nbsp;,1
english,base,Retail,configurable,VD-71,Naturals Espresso,18.99,&nbsp;,&nbsp;,1
english,base,Retail,configurable,VD-72,Naturals Island Coconut,18.99,&nbsp;,&nbsp;,1
english,base,Retail,configurable,VD-73,Naturals Monkey Junk,18.99,&nbsp;,&nbsp;,1
english,base,Retail,configurable,VD-74,Naturals No-Bake Cake,18.99,&nbsp;,&nbsp;,1
english,base,Retail,configurable,VD-75,Naturals RB Dude,18.99,&nbsp;,&nbsp;,1
english,base,Retail,configurable,VD-76,Naturals Red Water,18.99,&nbsp;,&nbsp;,1
english,base,Retail,configurable,VD-77,Naturals Simply Pear,18.99,&nbsp;,&nbsp;,1
english,base,Retail,configurable,VD-78,Naturals Straw-very Shortcake,18.99,&nbsp;,&nbsp;,1
