"Order Number","Order Date","Date Shipped","Order Status","Order Purchased From","Order Payment Method","Order Currency","Credit Card Type","Order Shipping Method","Order Coupon Code","Order Subtotal","Order Tax","Order Shipping","Order Discount","Order Grand Total","Order Base Grand Total","Order Paid","Order Refunded","Order Due","Total Qty Items Ordered","Order Weight","Order Gift Message","Customer Name","Customer Email","Customer Group","Customer Tax/VAT Number","Shipping Name","Shipping Company","Shipping Street","Shipping Zip","Shipping City","Shipping State","Shipping State Name","Shipping Country","Shipping Country Name","Shipping Phone Number","Billing Name","Billing Company","Billing Street","Billing Zip","Billing City","Billing State","Billing State Name","Billing Country","Billing Country Name","Billing Phone Number","Order Item Increment","Item Name","Item Status","Item Product Type","Item SKU","Item Options","Item Original Price","Item Price","Item Base Price","Item Qty Ordered","Item Qty Invoiced","Item Qty Shipped","Item Qty Canceled","Item Qty Refunded","Item Tax","Item Discount","Item Total","Item Base Total","Item Base Row Total","Categories","Item URL","Item Gift Message","flavor_level","nicotine_strength","pgvg_ratio","volume"
"100171785","Apr 6, 2014 2:29:40 AM","Apr 6, 2014 2:30:28 AM","complete","Main Website: Main Website Store: Default Store View","checkmo","USD","","Flat Rate - Fixed","","$181.48","$0.00","$3.00","$0.00","$178.48","$178.48","$178.58","$0.00","$0.00","3","18.1000","","Wade Shiflett","wadershiflett@gmail.com","General","","Wade Shiflett","","1118 Wiltshire Drive ","75007","Carrollton","TX","Texas","US","United States","310 447 8403","Wade Shiflett","","1118 Wiltshire Drive ","75007","Carrollton","TX","Texas","US","United States","310 447 8403","1","Blue Honey","Shipped","simple","12_10ml_22","Size: 10ml, PG/VG Ratio: 100% PG, Nicotine Level: 11mg, Flavor Level: Standard","$5.99","$5.99","$5.99","1","1","1","0","0","$0.00","$0.00","$5.99","$5.99","$5.99","","http://www.vddst.com//blue-honey-5141/","","Standard","11mg","100PG","10ml"
"100171785","Apr 6, 2014 2:29:40 AM","Apr 6, 2014 2:30:28 AM","complete","Main Website: Main Website Store: Default Store View","checkmo","USD","","Flat Rate - Fixed","","$181.48","$0.00","$3.00","$0.00","$178.48","$178.48","$178.58","$0.00","$0.00","3","18.1000","","Wade Shiflett","wadershiflett@gmail.com","General","","Wade Shiflett","","1118 Wiltshire Drive ","75007","Carrollton","TX","Texas","US","United States","310 447 8403","Wade Shiflett","","1118 Wiltshire Drive ","75007","Carrollton","TX","Texas","US","United States","310 447 8403","2","Banana ICE ","Shipped","simple","28_30ml_19","Size: 30ml, PG/VG Ratio: 100% PG, Nicotine Level: 6mg, Flavor Level: Standard","$16.99","$16.99","$16.99","1","1","1","0","0","$0.00","$0.00","$16.99","$16.99","$16.99","","http://www.vddst.com//banana-ice-10029/","","Standard","6mg","100PG","30ml"
"100171785","Apr 6, 2014 2:29:40 AM","Apr 6, 2014 2:30:28 AM","complete","Main Website: Main Website Store: Default Store View","checkmo","USD","","Flat Rate - Fixed","","$181.48","$0.00","$3.00","$0.00","$178.48","$178.48","$178.58","$0.00","$0.00","3","18.1000","","Wade Shiflett","wadershiflett@gmail.com","General","","Wade Shiflett","","1118 Wiltshire Drive ","75007","Carrollton","TX","Texas","US","United States","310 447 8403","Wade Shiflett","","1118 Wiltshire Drive ","75007","Carrollton","TX","Texas","US","United States","310 447 8403","3","SS Private v3 by Grand Vapor","Shipped","simple","ss-private-v3","","$158.50","$158.50","$158.50","1","1","1","0","0","$0.00","$0.00","$158.50","$158.50","$158.50","Mechanical ","http://www.vddst.com//ss-private-v3/","","","","",""
