2014-04-13T20:02:02+00:00 DEBUG (7): Array
(
    [0] => us5.api.mailchimp.com
    [__pid] => 6095
)

2014-04-13T20:02:02+00:00 DEBUG (7): Array
(
    [0] => a06e5623ed5aa33da10738104eded427-us5
    [__pid] => 6095
)

2014-04-13T20:02:02+00:00 DEBUG (7): Array
(
    [0] => listsForEmail
    [__pid] => 6095
)

2014-04-13T20:02:02+00:00 DEBUG (7): Array
(
    [0] => scottmeine@yahoo.com
    [__pid] => 6095
)

2014-04-13T20:02:02+00:00 DEBUG (7): Array
(
    [0] => 
    [__pid] => 6095
)

2014-04-13T20:02:02+00:00 DEBUG (7): Array
(
    [0] => Error: There is no record of the email address "scottmeine@yahoo.com" in your account, code 232
    [__pid] => 6095
)

2014-04-13T20:02:02+00:00 DEBUG (7): Array
(
    [0] => us5.api.mailchimp.com
    [__pid] => 6095
)

2014-04-13T20:02:02+00:00 DEBUG (7): Array
(
    [0] => a06e5623ed5aa33da10738104eded427-us5
    [__pid] => 6095
)

2014-04-13T20:02:02+00:00 DEBUG (7): Array
(
    [0] => listMemberInfo
    [__pid] => 6095
)

2014-04-13T20:02:02+00:00 DEBUG (7): Array
(
    [0] => 
    [1] => scottmeine@yahoo.com
    [__pid] => 6095
)

2014-04-13T20:02:02+00:00 DEBUG (7): Array
(
    [0] => 
    [__pid] => 6095
)

2014-04-13T20:02:02+00:00 DEBUG (7): Array
(
    [0] => Error: Invalid MailChimp List ID: , code 200
    [__pid] => 6095
)

2014-04-13T20:04:53+00:00 DEBUG (7): Array
(
    [0] => us5.api.mailchimp.com
    [__pid] => 6561
)

2014-04-13T20:04:53+00:00 DEBUG (7): Array
(
    [0] => a06e5623ed5aa33da10738104eded427-us5
    [__pid] => 6561
)

2014-04-13T20:04:53+00:00 DEBUG (7): Array
(
    [0] => listsForEmail
    [__pid] => 6561
)

2014-04-13T20:04:53+00:00 DEBUG (7): Array
(
    [0] => alwaysjonesen@gmail.com
    [__pid] => 6561
)

2014-04-13T20:04:53+00:00 DEBUG (7): Array
(
    [0] => 
    [__pid] => 6561
)

2014-04-13T20:04:53+00:00 DEBUG (7): Array
(
    [0] => Error: There is no record of the email address "alwaysjonesen@gmail.com" in your account, code 232
    [__pid] => 6561
)

2014-04-13T20:09:59+00:00 DEBUG (7): Array
(
    [0] => us5.api.mailchimp.com
    [__pid] => 7368
)

2014-04-13T20:09:59+00:00 DEBUG (7): Array
(
    [0] => a06e5623ed5aa33da10738104eded427-us5
    [__pid] => 7368
)

2014-04-13T20:09:59+00:00 DEBUG (7): Array
(
    [0] => listsForEmail
    [__pid] => 7368
)

2014-04-13T20:09:59+00:00 DEBUG (7): Array
(
    [0] => Hannahphillips777@yahoo.com
    [__pid] => 7368
)

2014-04-13T20:09:59+00:00 DEBUG (7): Array
(
    [0] => 
    [__pid] => 7368
)

2014-04-13T20:09:59+00:00 DEBUG (7): Array
(
    [0] => Error: There is no record of the email address "Hannahphillips777@yahoo.com" in your account, code 232
    [__pid] => 7368
)

2014-04-13T20:09:59+00:00 DEBUG (7): Array
(
    [0] => us5.api.mailchimp.com
    [__pid] => 7368
)

2014-04-13T20:09:59+00:00 DEBUG (7): Array
(
    [0] => a06e5623ed5aa33da10738104eded427-us5
    [__pid] => 7368
)

2014-04-13T20:09:59+00:00 DEBUG (7): Array
(
    [0] => listMemberInfo
    [__pid] => 7368
)

2014-04-13T20:09:59+00:00 DEBUG (7): Array
(
    [0] => 
    [1] => Hannahphillips777@yahoo.com
    [__pid] => 7368
)

2014-04-13T20:09:59+00:00 DEBUG (7): Array
(
    [0] => 
    [__pid] => 7368
)

2014-04-13T20:09:59+00:00 DEBUG (7): Array
(
    [0] => Error: Invalid MailChimp List ID: , code 200
    [__pid] => 7368
)

2014-04-13T20:16:33+00:00 DEBUG (7): Array
(
    [0] => us5.api.mailchimp.com
    [__pid] => 8396
)

2014-04-13T20:16:33+00:00 DEBUG (7): Array
(
    [0] => a06e5623ed5aa33da10738104eded427-us5
    [__pid] => 8396
)

2014-04-13T20:16:33+00:00 DEBUG (7): Array
(
    [0] => listsForEmail
    [__pid] => 8396
)

2014-04-13T20:16:33+00:00 DEBUG (7): Array
(
    [0] => heyjude900@gmail.com
    [__pid] => 8396
)

2014-04-13T20:16:33+00:00 DEBUG (7): Array
(
    [0] => 
    [__pid] => 8396
)

2014-04-13T20:16:33+00:00 DEBUG (7): Array
(
    [0] => Error: There is no record of the email address "heyjude900@gmail.com" in your account, code 232
    [__pid] => 8396
)

2014-04-13T20:24:18+00:00 DEBUG (7): Array
(
    [0] => us5.api.mailchimp.com
    [__pid] => 9448
)

2014-04-13T20:24:18+00:00 DEBUG (7): Array
(
    [0] => a06e5623ed5aa33da10738104eded427-us5
    [__pid] => 9448
)

2014-04-13T20:24:18+00:00 DEBUG (7): Array
(
    [0] => listsForEmail
    [__pid] => 9448
)

2014-04-13T20:24:18+00:00 DEBUG (7): Array
(
    [0] => heyjude900@gmail.com
    [__pid] => 9448
)

2014-04-13T20:24:18+00:00 DEBUG (7): Array
(
    [0] => 
    [__pid] => 9448
)

2014-04-13T20:24:18+00:00 DEBUG (7): Array
(
    [0] => Error: There is no record of the email address "heyjude900@gmail.com" in your account, code 232
    [__pid] => 9448
)

2014-04-13T20:26:38+00:00 DEBUG (7): Array
(
    [0] => us5.api.mailchimp.com
    [__pid] => 9852
)

2014-04-13T20:26:38+00:00 DEBUG (7): Array
(
    [0] => a06e5623ed5aa33da10738104eded427-us5
    [__pid] => 9852
)

2014-04-13T20:26:38+00:00 DEBUG (7): Array
(
    [0] => listsForEmail
    [__pid] => 9852
)

2014-04-13T20:26:38+00:00 DEBUG (7): Array
(
    [0] => jbabinojr@new.rr.com
    [__pid] => 9852
)

2014-04-13T20:26:38+00:00 DEBUG (7): Array
(
    [0] => 
    [__pid] => 9852
)

2014-04-13T20:26:38+00:00 DEBUG (7): Array
(
    [0] => Error: There is no record of the email address "jbabinojr@new.rr.com" in your account, code 232
    [__pid] => 9852
)

2014-04-13T20:43:38+00:00 DEBUG (7): Array
(
    [0] => us5.api.mailchimp.com
    [__pid] => 12754
)

2014-04-13T20:43:38+00:00 DEBUG (7): Array
(
    [0] => a06e5623ed5aa33da10738104eded427-us5
    [__pid] => 12754
)

2014-04-13T20:43:38+00:00 DEBUG (7): Array
(
    [0] => listsForEmail
    [__pid] => 12754
)

2014-04-13T20:43:38+00:00 DEBUG (7): Array
(
    [0] => jillian.rose.cohen@gmail.com
    [__pid] => 12754
)

2014-04-13T20:43:39+00:00 DEBUG (7): Array
(
    [0] => 
    [__pid] => 12754
)

2014-04-13T20:43:39+00:00 DEBUG (7): Array
(
    [0] => Error: There is no record of the email address "jillian.rose.cohen@gmail.com" in your account, code 232
    [__pid] => 12754
)

2014-04-13T20:43:39+00:00 DEBUG (7): Array
(
    [0] => us5.api.mailchimp.com
    [__pid] => 12754
)

2014-04-13T20:43:39+00:00 DEBUG (7): Array
(
    [0] => a06e5623ed5aa33da10738104eded427-us5
    [__pid] => 12754
)

2014-04-13T20:43:39+00:00 DEBUG (7): Array
(
    [0] => listMemberInfo
    [__pid] => 12754
)

2014-04-13T20:43:39+00:00 DEBUG (7): Array
(
    [0] => 
    [1] => jillian.rose.cohen@gmail.com
    [__pid] => 12754
)

2014-04-13T20:43:39+00:00 DEBUG (7): Array
(
    [0] => 
    [__pid] => 12754
)

2014-04-13T20:43:39+00:00 DEBUG (7): Array
(
    [0] => Error: Invalid MailChimp List ID: , code 200
    [__pid] => 12754
)

2014-04-13T20:44:03+00:00 DEBUG (7): Array
(
    [0] => us5.api.mailchimp.com
    [__pid] => 12846
)

2014-04-13T20:44:03+00:00 DEBUG (7): Array
(
    [0] => a06e5623ed5aa33da10738104eded427-us5
    [__pid] => 12846
)

2014-04-13T20:44:03+00:00 DEBUG (7): Array
(
    [0] => listsForEmail
    [__pid] => 12846
)

2014-04-13T20:44:03+00:00 DEBUG (7): Array
(
    [0] => marklouie8503@gmail.com
    [__pid] => 12846
)

2014-04-13T20:44:03+00:00 DEBUG (7): Array
(
    [0] => 
    [__pid] => 12846
)

2014-04-13T20:44:03+00:00 DEBUG (7): Array
(
    [0] => Error: There is no record of the email address "marklouie8503@gmail.com" in your account, code 232
    [__pid] => 12846
)

2014-04-13T20:44:03+00:00 DEBUG (7): Array
(
    [0] => us5.api.mailchimp.com
    [__pid] => 12846
)

2014-04-13T20:44:03+00:00 DEBUG (7): Array
(
    [0] => a06e5623ed5aa33da10738104eded427-us5
    [__pid] => 12846
)

2014-04-13T20:44:03+00:00 DEBUG (7): Array
(
    [0] => listMemberInfo
    [__pid] => 12846
)

2014-04-13T20:44:03+00:00 DEBUG (7): Array
(
    [0] => 
    [1] => marklouie8503@gmail.com
    [__pid] => 12846
)

2014-04-13T20:44:03+00:00 DEBUG (7): Array
(
    [0] => 
    [__pid] => 12846
)

2014-04-13T20:44:03+00:00 DEBUG (7): Array
(
    [0] => Error: Invalid MailChimp List ID: , code 200
    [__pid] => 12846
)

2014-04-13T20:46:28+00:00 DEBUG (7): Array
(
    [0] => us5.api.mailchimp.com
    [__pid] => 13281
)

2014-04-13T20:46:28+00:00 DEBUG (7): Array
(
    [0] => a06e5623ed5aa33da10738104eded427-us5
    [__pid] => 13281
)

2014-04-13T20:46:28+00:00 DEBUG (7): Array
(
    [0] => listsForEmail
    [__pid] => 13281
)

2014-04-13T20:46:28+00:00 DEBUG (7): Array
(
    [0] => ruckingoodtime@gmail.com
    [__pid] => 13281
)

2014-04-13T20:46:28+00:00 DEBUG (7): Array
(
    [0] => 
    [__pid] => 13281
)

2014-04-13T20:46:28+00:00 DEBUG (7): Array
(
    [0] => Error: There is no record of the email address "ruckingoodtime@gmail.com" in your account, code 232
    [__pid] => 13281
)

2014-04-13T20:46:28+00:00 DEBUG (7): Array
(
    [0] => us5.api.mailchimp.com
    [__pid] => 13281
)

2014-04-13T20:46:28+00:00 DEBUG (7): Array
(
    [0] => a06e5623ed5aa33da10738104eded427-us5
    [__pid] => 13281
)

2014-04-13T20:46:28+00:00 DEBUG (7): Array
(
    [0] => listMemberInfo
    [__pid] => 13281
)

2014-04-13T20:46:28+00:00 DEBUG (7): Array
(
    [0] => 
    [1] => ruckingoodtime@gmail.com
    [__pid] => 13281
)

2014-04-13T20:46:28+00:00 DEBUG (7): Array
(
    [0] => 
    [__pid] => 13281
)

2014-04-13T20:46:28+00:00 DEBUG (7): Array
(
    [0] => Error: Invalid MailChimp List ID: , code 200
    [__pid] => 13281
)

2014-04-13T21:05:59+00:00 DEBUG (7): Array
(
    [0] => us5.api.mailchimp.com
    [__pid] => 15758
)

2014-04-13T21:05:59+00:00 DEBUG (7): Array
(
    [0] => a06e5623ed5aa33da10738104eded427-us5
    [__pid] => 15758
)

2014-04-13T21:05:59+00:00 DEBUG (7): Array
(
    [0] => listsForEmail
    [__pid] => 15758
)

2014-04-13T21:05:59+00:00 DEBUG (7): Array
(
    [0] => Remy_lembeau@yahoo.com
    [__pid] => 15758
)

2014-04-13T21:06:00+00:00 DEBUG (7): Array
(
    [0] => 
    [__pid] => 15758
)

2014-04-13T21:06:00+00:00 DEBUG (7): Array
(
    [0] => Error: There is no record of the email address "Remy_lembeau@yahoo.com" in your account, code 232
    [__pid] => 15758
)

2014-04-13T21:06:00+00:00 DEBUG (7): Array
(
    [0] => us5.api.mailchimp.com
    [__pid] => 15758
)

2014-04-13T21:06:00+00:00 DEBUG (7): Array
(
    [0] => a06e5623ed5aa33da10738104eded427-us5
    [__pid] => 15758
)

2014-04-13T21:06:00+00:00 DEBUG (7): Array
(
    [0] => listMemberInfo
    [__pid] => 15758
)

2014-04-13T21:06:00+00:00 DEBUG (7): Array
(
    [0] => 
    [1] => Remy_lembeau@yahoo.com
    [__pid] => 15758
)

2014-04-13T21:06:00+00:00 DEBUG (7): Array
(
    [0] => 
    [__pid] => 15758
)

2014-04-13T21:06:00+00:00 DEBUG (7): Array
(
    [0] => Error: Invalid MailChimp List ID: , code 200
    [__pid] => 15758
)

2014-04-13T21:06:54+00:00 DEBUG (7): Array
(
    [0] => us5.api.mailchimp.com
    [__pid] => 15863
)

2014-04-13T21:06:54+00:00 DEBUG (7): Array
(
    [0] => a06e5623ed5aa33da10738104eded427-us5
    [__pid] => 15863
)

2014-04-13T21:06:54+00:00 DEBUG (7): Array
(
    [0] => listsForEmail
    [__pid] => 15863
)

2014-04-13T21:06:54+00:00 DEBUG (7): Array
(
    [0] => liltrisha2001@yahoo.com
    [__pid] => 15863
)

2014-04-13T21:06:54+00:00 DEBUG (7): Array
(
    [0] => 
    [__pid] => 15863
)

2014-04-13T21:06:54+00:00 DEBUG (7): Array
(
    [0] => Error: There is no record of the email address "liltrisha2001@yahoo.com" in your account, code 232
    [__pid] => 15863
)

2014-04-13T21:06:54+00:00 DEBUG (7): Array
(
    [0] => us5.api.mailchimp.com
    [__pid] => 15863
)

2014-04-13T21:06:54+00:00 DEBUG (7): Array
(
    [0] => a06e5623ed5aa33da10738104eded427-us5
    [__pid] => 15863
)

2014-04-13T21:06:54+00:00 DEBUG (7): Array
(
    [0] => listMemberInfo
    [__pid] => 15863
)

2014-04-13T21:06:54+00:00 DEBUG (7): Array
(
    [0] => 
    [1] => liltrisha2001@yahoo.com
    [__pid] => 15863
)

2014-04-13T21:06:54+00:00 DEBUG (7): Array
(
    [0] => 
    [__pid] => 15863
)

2014-04-13T21:06:54+00:00 DEBUG (7): Array
(
    [0] => Error: Invalid MailChimp List ID: , code 200
    [__pid] => 15863
)

2014-04-13T21:16:15+00:00 DEBUG (7): Array
(
    [0] => us5.api.mailchimp.com
    [__pid] => 17385
)

2014-04-13T21:16:15+00:00 DEBUG (7): Array
(
    [0] => a06e5623ed5aa33da10738104eded427-us5
    [__pid] => 17385
)

2014-04-13T21:16:15+00:00 DEBUG (7): Array
(
    [0] => listsForEmail
    [__pid] => 17385
)

2014-04-13T21:16:15+00:00 DEBUG (7): Array
(
    [0] => Nathanrhicks@gmail.com
    [__pid] => 17385
)

2014-04-13T21:16:16+00:00 DEBUG (7): Array
(
    [0] => 
    [__pid] => 17385
)

2014-04-13T21:16:16+00:00 DEBUG (7): Array
(
    [0] => Error: There is no record of the email address "Nathanrhicks@gmail.com" in your account, code 232
    [__pid] => 17385
)

2014-04-13T21:16:16+00:00 DEBUG (7): Array
(
    [0] => us5.api.mailchimp.com
    [__pid] => 17385
)

2014-04-13T21:16:16+00:00 DEBUG (7): Array
(
    [0] => a06e5623ed5aa33da10738104eded427-us5
    [__pid] => 17385
)

2014-04-13T21:16:16+00:00 DEBUG (7): Array
(
    [0] => listMemberInfo
    [__pid] => 17385
)

2014-04-13T21:16:16+00:00 DEBUG (7): Array
(
    [0] => 
    [1] => Nathanrhicks@gmail.com
    [__pid] => 17385
)

2014-04-13T21:16:16+00:00 DEBUG (7): Array
(
    [0] => 
    [__pid] => 17385
)

2014-04-13T21:16:16+00:00 DEBUG (7): Array
(
    [0] => Error: Invalid MailChimp List ID: , code 200
    [__pid] => 17385
)

2014-04-13T21:17:07+00:00 DEBUG (7): Array
(
    [0] => us5.api.mailchimp.com
    [__pid] => 17483
)

2014-04-13T21:17:07+00:00 DEBUG (7): Array
(
    [0] => a06e5623ed5aa33da10738104eded427-us5
    [__pid] => 17483
)

2014-04-13T21:17:07+00:00 DEBUG (7): Array
(
    [0] => listsForEmail
    [__pid] => 17483
)

2014-04-13T21:17:07+00:00 DEBUG (7): Array
(
    [0] => Annagrapes@aol.com
    [__pid] => 17483
)

2014-04-13T21:17:07+00:00 DEBUG (7): Array
(
    [0] => 
    [__pid] => 17483
)

2014-04-13T21:17:07+00:00 DEBUG (7): Array
(
    [0] => Error: There is no record of the email address "Annagrapes@aol.com" in your account, code 232
    [__pid] => 17483
)

2014-04-13T21:17:07+00:00 DEBUG (7): Array
(
    [0] => us5.api.mailchimp.com
    [__pid] => 17483
)

2014-04-13T21:17:07+00:00 DEBUG (7): Array
(
    [0] => a06e5623ed5aa33da10738104eded427-us5
    [__pid] => 17483
)

2014-04-13T21:17:07+00:00 DEBUG (7): Array
(
    [0] => listMemberInfo
    [__pid] => 17483
)

2014-04-13T21:17:07+00:00 DEBUG (7): Array
(
    [0] => 
    [1] => Annagrapes@aol.com
    [__pid] => 17483
)

2014-04-13T21:17:07+00:00 DEBUG (7): Array
(
    [0] => 
    [__pid] => 17483
)

2014-04-13T21:17:07+00:00 DEBUG (7): Array
(
    [0] => Error: Invalid MailChimp List ID: , code 200
    [__pid] => 17483
)

2014-04-13T21:17:14+00:00 DEBUG (7): Array
(
    [0] => us5.api.mailchimp.com
    [__pid] => 17490
)

2014-04-13T21:17:14+00:00 DEBUG (7): Array
(
    [0] => a06e5623ed5aa33da10738104eded427-us5
    [__pid] => 17490
)

2014-04-13T21:17:14+00:00 DEBUG (7): Array
(
    [0] => listsForEmail
    [__pid] => 17490
)

2014-04-13T21:17:14+00:00 DEBUG (7): Array
(
    [0] => Nathanrhicks@gmail.com
    [__pid] => 17490
)

2014-04-13T21:17:15+00:00 DEBUG (7): Array
(
    [0] => 
    [__pid] => 17490
)

2014-04-13T21:17:15+00:00 DEBUG (7): Array
(
    [0] => Error: There is no record of the email address "Nathanrhicks@gmail.com" in your account, code 232
    [__pid] => 17490
)

2014-04-13T21:17:15+00:00 DEBUG (7): Array
(
    [0] => us5.api.mailchimp.com
    [__pid] => 17490
)

2014-04-13T21:17:15+00:00 DEBUG (7): Array
(
    [0] => a06e5623ed5aa33da10738104eded427-us5
    [__pid] => 17490
)

2014-04-13T21:17:15+00:00 DEBUG (7): Array
(
    [0] => listMemberInfo
    [__pid] => 17490
)

2014-04-13T21:17:15+00:00 DEBUG (7): Array
(
    [0] => 
    [1] => Nathanrhicks@gmail.com
    [__pid] => 17490
)

2014-04-13T21:17:15+00:00 DEBUG (7): Array
(
    [0] => 
    [__pid] => 17490
)

2014-04-13T21:17:15+00:00 DEBUG (7): Array
(
    [0] => Error: Invalid MailChimp List ID: , code 200
    [__pid] => 17490
)

2014-04-13T21:31:28+00:00 DEBUG (7): Array
(
    [0] => us5.api.mailchimp.com
    [__pid] => 19515
)

2014-04-13T21:31:28+00:00 DEBUG (7): Array
(
    [0] => a06e5623ed5aa33da10738104eded427-us5
    [__pid] => 19515
)

2014-04-13T21:31:28+00:00 DEBUG (7): Array
(
    [0] => listsForEmail
    [__pid] => 19515
)

2014-04-13T21:31:28+00:00 DEBUG (7): Array
(
    [0] => Spr1277@hotmail.com
    [__pid] => 19515
)

2014-04-13T21:31:28+00:00 DEBUG (7): Array
(
    [0] => 
    [__pid] => 19515
)

2014-04-13T21:31:28+00:00 DEBUG (7): Array
(
    [0] => Error: There is no record of the email address "Spr1277@hotmail.com" in your account, code 232
    [__pid] => 19515
)

2014-04-13T21:31:28+00:00 DEBUG (7): Array
(
    [0] => us5.api.mailchimp.com
    [__pid] => 19515
)

2014-04-13T21:31:28+00:00 DEBUG (7): Array
(
    [0] => a06e5623ed5aa33da10738104eded427-us5
    [__pid] => 19515
)

2014-04-13T21:31:28+00:00 DEBUG (7): Array
(
    [0] => listMemberInfo
    [__pid] => 19515
)

2014-04-13T21:31:28+00:00 DEBUG (7): Array
(
    [0] => 
    [1] => Spr1277@hotmail.com
    [__pid] => 19515
)

2014-04-13T21:31:28+00:00 DEBUG (7): Array
(
    [0] => 
    [__pid] => 19515
)

2014-04-13T21:31:28+00:00 DEBUG (7): Array
(
    [0] => Error: Invalid MailChimp List ID: , code 200
    [__pid] => 19515
)

2014-04-13T21:32:43+00:00 DEBUG (7): Array
(
    [0] => us5.api.mailchimp.com
    [__pid] => 19583
)

2014-04-13T21:32:43+00:00 DEBUG (7): Array
(
    [0] => a06e5623ed5aa33da10738104eded427-us5
    [__pid] => 19583
)

2014-04-13T21:32:43+00:00 DEBUG (7): Array
(
    [0] => listsForEmail
    [__pid] => 19583
)

2014-04-13T21:32:43+00:00 DEBUG (7): Array
(
    [0] => Remy_lembeau@yahoo.com
    [__pid] => 19583
)

2014-04-13T21:32:44+00:00 DEBUG (7): Array
(
    [0] => 
    [__pid] => 19583
)

2014-04-13T21:32:44+00:00 DEBUG (7): Array
(
    [0] => Error: There is no record of the email address "Remy_lembeau@yahoo.com" in your account, code 232
    [__pid] => 19583
)

2014-04-13T21:32:44+00:00 DEBUG (7): Array
(
    [0] => us5.api.mailchimp.com
    [__pid] => 19583
)

2014-04-13T21:32:44+00:00 DEBUG (7): Array
(
    [0] => a06e5623ed5aa33da10738104eded427-us5
    [__pid] => 19583
)

2014-04-13T21:32:44+00:00 DEBUG (7): Array
(
    [0] => listMemberInfo
    [__pid] => 19583
)

2014-04-13T21:32:44+00:00 DEBUG (7): Array
(
    [0] => 
    [1] => Remy_lembeau@yahoo.com
    [__pid] => 19583
)

2014-04-13T21:32:44+00:00 DEBUG (7): Array
(
    [0] => 
    [__pid] => 19583
)

2014-04-13T21:32:44+00:00 DEBUG (7): Array
(
    [0] => Error: Invalid MailChimp List ID: , code 200
    [__pid] => 19583
)

2014-04-13T21:36:36+00:00 DEBUG (7): Array
(
    [0] => us5.api.mailchimp.com
    [__pid] => 20345
)

2014-04-13T21:36:36+00:00 DEBUG (7): Array
(
    [0] => a06e5623ed5aa33da10738104eded427-us5
    [__pid] => 20345
)

2014-04-13T21:36:36+00:00 DEBUG (7): Array
(
    [0] => listsForEmail
    [__pid] => 20345
)

2014-04-13T21:36:36+00:00 DEBUG (7): Array
(
    [0] => es7ven3@gmail.com
    [__pid] => 20345
)

2014-04-13T21:36:37+00:00 DEBUG (7): Array
(
    [0] => 
    [__pid] => 20345
)

2014-04-13T21:36:37+00:00 DEBUG (7): Array
(
    [0] => Error: There is no record of the email address "es7ven3@gmail.com" in your account, code 232
    [__pid] => 20345
)

2014-04-13T21:36:37+00:00 DEBUG (7): Array
(
    [0] => us5.api.mailchimp.com
    [__pid] => 20345
)

2014-04-13T21:36:37+00:00 DEBUG (7): Array
(
    [0] => a06e5623ed5aa33da10738104eded427-us5
    [__pid] => 20345
)

2014-04-13T21:36:37+00:00 DEBUG (7): Array
(
    [0] => listMemberInfo
    [__pid] => 20345
)

2014-04-13T21:36:37+00:00 DEBUG (7): Array
(
    [0] => 
    [1] => es7ven3@gmail.com
    [__pid] => 20345
)

2014-04-13T21:36:37+00:00 DEBUG (7): Array
(
    [0] => 
    [__pid] => 20345
)

2014-04-13T21:36:37+00:00 DEBUG (7): Array
(
    [0] => Error: Invalid MailChimp List ID: , code 200
    [__pid] => 20345
)

2014-04-13T21:38:17+00:00 DEBUG (7): Array
(
    [0] => us5.api.mailchimp.com
    [__pid] => 20570
)

2014-04-13T21:38:17+00:00 DEBUG (7): Array
(
    [0] => a06e5623ed5aa33da10738104eded427-us5
    [__pid] => 20570
)

2014-04-13T21:38:17+00:00 DEBUG (7): Array
(
    [0] => listsForEmail
    [__pid] => 20570
)

2014-04-13T21:38:17+00:00 DEBUG (7): Array
(
    [0] => Spr1277@hotmail.com
    [__pid] => 20570
)

2014-04-13T21:38:17+00:00 DEBUG (7): Array
(
    [0] => 
    [__pid] => 20570
)

2014-04-13T21:38:17+00:00 DEBUG (7): Array
(
    [0] => Error: There is no record of the email address "Spr1277@hotmail.com" in your account, code 232
    [__pid] => 20570
)

2014-04-13T21:38:17+00:00 DEBUG (7): Array
(
    [0] => us5.api.mailchimp.com
    [__pid] => 20570
)

2014-04-13T21:38:17+00:00 DEBUG (7): Array
(
    [0] => a06e5623ed5aa33da10738104eded427-us5
    [__pid] => 20570
)

2014-04-13T21:38:17+00:00 DEBUG (7): Array
(
    [0] => listMemberInfo
    [__pid] => 20570
)

2014-04-13T21:38:17+00:00 DEBUG (7): Array
(
    [0] => 
    [1] => Spr1277@hotmail.com
    [__pid] => 20570
)

2014-04-13T21:38:17+00:00 DEBUG (7): Array
(
    [0] => 
    [__pid] => 20570
)

2014-04-13T21:38:17+00:00 DEBUG (7): Array
(
    [0] => Error: Invalid MailChimp List ID: , code 200
    [__pid] => 20570
)

2014-04-13T21:42:35+00:00 DEBUG (7): Array
(
    [0] => us5.api.mailchimp.com
    [__pid] => 21181
)

2014-04-13T21:42:35+00:00 DEBUG (7): Array
(
    [0] => a06e5623ed5aa33da10738104eded427-us5
    [__pid] => 21181
)

2014-04-13T21:42:35+00:00 DEBUG (7): Array
(
    [0] => listsForEmail
    [__pid] => 21181
)

2014-04-13T21:42:35+00:00 DEBUG (7): Array
(
    [0] => jessicam170203@yahoo.com
    [__pid] => 21181
)

2014-04-13T21:42:35+00:00 DEBUG (7): Array
(
    [0] => 
    [__pid] => 21181
)

2014-04-13T21:42:35+00:00 DEBUG (7): Array
(
    [0] => Error: There is no record of the email address "jessicam170203@yahoo.com" in your account, code 232
    [__pid] => 21181
)

2014-04-13T21:43:52+00:00 DEBUG (7): Array
(
    [0] => us5.api.mailchimp.com
    [__pid] => 21349
)

2014-04-13T21:43:52+00:00 DEBUG (7): Array
(
    [0] => a06e5623ed5aa33da10738104eded427-us5
    [__pid] => 21349
)

2014-04-13T21:43:52+00:00 DEBUG (7): Array
(
    [0] => listsForEmail
    [__pid] => 21349
)

2014-04-13T21:43:52+00:00 DEBUG (7): Array
(
    [0] => es7ven3@gmail.com
    [__pid] => 21349
)

2014-04-13T21:43:52+00:00 DEBUG (7): Array
(
    [0] => 
    [__pid] => 21349
)

2014-04-13T21:43:52+00:00 DEBUG (7): Array
(
    [0] => Error: There is no record of the email address "es7ven3@gmail.com" in your account, code 232
    [__pid] => 21349
)

2014-04-13T21:43:52+00:00 DEBUG (7): Array
(
    [0] => us5.api.mailchimp.com
    [__pid] => 21349
)

2014-04-13T21:43:52+00:00 DEBUG (7): Array
(
    [0] => a06e5623ed5aa33da10738104eded427-us5
    [__pid] => 21349
)

2014-04-13T21:43:52+00:00 DEBUG (7): Array
(
    [0] => listMemberInfo
    [__pid] => 21349
)

2014-04-13T21:43:52+00:00 DEBUG (7): Array
(
    [0] => 
    [1] => es7ven3@gmail.com
    [__pid] => 21349
)

2014-04-13T21:43:52+00:00 DEBUG (7): Array
(
    [0] => 
    [__pid] => 21349
)

2014-04-13T21:43:52+00:00 DEBUG (7): Array
(
    [0] => Error: Invalid MailChimp List ID: , code 200
    [__pid] => 21349
)

2014-04-13T21:47:33+00:00 DEBUG (7): Array
(
    [0] => us5.api.mailchimp.com
    [__pid] => 21926
)

2014-04-13T21:47:33+00:00 DEBUG (7): Array
(
    [0] => a06e5623ed5aa33da10738104eded427-us5
    [__pid] => 21926
)

2014-04-13T21:47:33+00:00 DEBUG (7): Array
(
    [0] => listsForEmail
    [__pid] => 21926
)

2014-04-13T21:47:33+00:00 DEBUG (7): Array
(
    [0] => kloft@frontiernet.net
    [__pid] => 21926
)

2014-04-13T21:47:33+00:00 DEBUG (7): Array
(
    [0] => 
    [__pid] => 21926
)

2014-04-13T21:47:33+00:00 DEBUG (7): Array
(
    [0] => Error: There is no record of the email address "kloft@frontiernet.net" in your account, code 232
    [__pid] => 21926
)

2014-04-13T21:47:33+00:00 DEBUG (7): Array
(
    [0] => us5.api.mailchimp.com
    [__pid] => 21926
)

2014-04-13T21:47:33+00:00 DEBUG (7): Array
(
    [0] => a06e5623ed5aa33da10738104eded427-us5
    [__pid] => 21926
)

2014-04-13T21:47:33+00:00 DEBUG (7): Array
(
    [0] => listMemberInfo
    [__pid] => 21926
)

2014-04-13T21:47:33+00:00 DEBUG (7): Array
(
    [0] => 
    [1] => kloft@frontiernet.net
    [__pid] => 21926
)

2014-04-13T21:47:33+00:00 DEBUG (7): Array
(
    [0] => 
    [__pid] => 21926
)

2014-04-13T21:47:33+00:00 DEBUG (7): Array
(
    [0] => Error: Invalid MailChimp List ID: , code 200
    [__pid] => 21926
)

2014-04-13T21:53:57+00:00 DEBUG (7): Array
(
    [0] => us5.api.mailchimp.com
    [__pid] => 22658
)

2014-04-13T21:53:57+00:00 DEBUG (7): Array
(
    [0] => a06e5623ed5aa33da10738104eded427-us5
    [__pid] => 22658
)

2014-04-13T21:53:57+00:00 DEBUG (7): Array
(
    [0] => listsForEmail
    [__pid] => 22658
)

2014-04-13T21:53:57+00:00 DEBUG (7): Array
(
    [0] => burnz1982@msn.com
    [__pid] => 22658
)

2014-04-13T21:53:57+00:00 DEBUG (7): Array
(
    [0] => 
    [__pid] => 22658
)

2014-04-13T21:53:57+00:00 DEBUG (7): Array
(
    [0] => Error: There is no record of the email address "burnz1982@msn.com" in your account, code 232
    [__pid] => 22658
)

2014-04-13T21:56:15+00:00 DEBUG (7): Array
(
    [0] => us5.api.mailchimp.com
    [__pid] => 23952
)

2014-04-13T21:56:15+00:00 DEBUG (7): Array
(
    [0] => a06e5623ed5aa33da10738104eded427-us5
    [__pid] => 23952
)

2014-04-13T21:56:15+00:00 DEBUG (7): Array
(
    [0] => listsForEmail
    [__pid] => 23952
)

2014-04-13T21:56:15+00:00 DEBUG (7): Array
(
    [0] => charlottebean@aiemail.net
    [__pid] => 23952
)

2014-04-13T21:56:15+00:00 DEBUG (7): Array
(
    [0] => 
    [__pid] => 23952
)

2014-04-13T21:56:15+00:00 DEBUG (7): Array
(
    [0] => Error: There is no record of the email address "charlottebean@aiemail.net" in your account, code 232
    [__pid] => 23952
)

2014-04-13T21:56:15+00:00 DEBUG (7): Array
(
    [0] => us5.api.mailchimp.com
    [__pid] => 23952
)

2014-04-13T21:56:15+00:00 DEBUG (7): Array
(
    [0] => a06e5623ed5aa33da10738104eded427-us5
    [__pid] => 23952
)

2014-04-13T21:56:15+00:00 DEBUG (7): Array
(
    [0] => listMemberInfo
    [__pid] => 23952
)

2014-04-13T21:56:15+00:00 DEBUG (7): Array
(
    [0] => 
    [1] => charlottebean@aiemail.net
    [__pid] => 23952
)

2014-04-13T21:56:15+00:00 DEBUG (7): Array
(
    [0] => 
    [__pid] => 23952
)

2014-04-13T21:56:15+00:00 DEBUG (7): Array
(
    [0] => Error: Invalid MailChimp List ID: , code 200
    [__pid] => 23952
)

2014-04-13T21:57:12+00:00 DEBUG (7): Array
(
    [0] => us5.api.mailchimp.com
    [__pid] => 24159
)

2014-04-13T21:57:12+00:00 DEBUG (7): Array
(
    [0] => a06e5623ed5aa33da10738104eded427-us5
    [__pid] => 24159
)

2014-04-13T21:57:12+00:00 DEBUG (7): Array
(
    [0] => listsForEmail
    [__pid] => 24159
)

2014-04-13T21:57:12+00:00 DEBUG (7): Array
(
    [0] => tetang1984@yahoo.com
    [__pid] => 24159
)

2014-04-13T21:57:12+00:00 DEBUG (7): Array
(
    [0] => 
    [__pid] => 24159
)

2014-04-13T21:57:12+00:00 DEBUG (7): Array
(
    [0] => Error: There is no record of the email address "tetang1984@yahoo.com" in your account, code 232
    [__pid] => 24159
)

