Email,Website,Point Balance
bach2@mail.com,Main Website,100
hai@mail.com,Main Website,200
bach@mail.com,Main Website,300
walkman1503@gmail.com,Main Website,400
john.doe@example.com,Main Website,500
